Name,per_imperv,Class,form,phenology,leafform,Dominant,Source,Photo,Scale,Notes,brightness
zerci34l6,pervious,gv,shrub,evergreen,broadleaf,erci,cary5,none,leaf,none,0.144169
zarca51n6,pervious,gv,shrub,deciduous,needle_leaf,arca,cary5,none,leaf,none,0.273304
QUKE1STACK,pervious,gv,tree,deciduous,broadleaf,quke,beckman_dk2a,none,leafstack,b3-48,0.31452
u9litt1a-av,pervious,npv,litter,litter,litter,litter,asd,none,branch,b24_98,0.233333
ARME0027,pervious,npv,wood,wood,wood,arme_wood,beckman_dk2a,none,leaf,b3-47,0.587344
726r1asph3-,impervious,soil,road,asphalt,road,road,asd,none,branch,b21_35,0.117015
u9grav05-av,pervious,soil,gravel,gravel,gravel,gravel,asd,none,branch,b24_112,0.128112
EROCK1,pervious,soil,rock,rock,rock,rock,beckman_dk2a,none,leaf,none,0.435273
